<?xml version="1.0" encoding="UTF-8" standalone="no"?>
<!-- Created with Inkscape (http://www.inkscape.org/) -->

<svg
   xmlns:osb="http://www.openswatchbook.org/uri/2009/osb"
   xmlns:dc="http://purl.org/dc/elements/1.1/"
   xmlns:cc="http://creativecommons.org/ns#"
   xmlns:rdf="http://www.w3.org/1999/02/22-rdf-syntax-ns#"
   xmlns:svg="http://www.w3.org/2000/svg"
   xmlns="http://www.w3.org/2000/svg"
   xmlns:xlink="http://www.w3.org/1999/xlink"
   xmlns:sodipodi="http://sodipodi.sourceforge.net/DTD/sodipodi-0.dtd"
   xmlns:inkscape="http://www.inkscape.org/namespaces/inkscape"
   width="744.09448819"
   height="1052.3622047"
   id="svg2"
   version="1.1"
   inkscape:version="0.48.4 r9939"
   sodipodi:docname="okerrlogo.svg"
   inkscape:export-filename="/home/xenon/okerrlogo.png"
   inkscape:export-xdpi="90"
   inkscape:export-ydpi="90">
  <defs
     id="defs4">
    <linearGradient
       inkscape:collect="always"
       id="linearGradient5266">
      <stop
         style="stop-color:#000000;stop-opacity:1;"
         offset="0"
         id="stop5268" />
      <stop
         style="stop-color:#000000;stop-opacity:0;"
         offset="1"
         id="stop5270" />
    </linearGradient>
    <linearGradient
       id="linearGradient5228"
       osb:paint="solid">
      <stop
         style="stop-color:#ff0000;stop-opacity:1;"
         offset="0"
         id="stop5230" />
    </linearGradient>
    <linearGradient
       id="linearGradient3782">
      <stop
         id="stop3784"
         offset="0"
         style="stop-color:#1ff01d;stop-opacity:1;" />
      <stop
         style="stop-color:#009f00;stop-opacity:0.52941176;"
         offset="0.5"
         id="stop3786" />
      <stop
         id="stop3788"
         offset="1"
         style="stop-color:#00ff00;stop-opacity:1;" />
    </linearGradient>
    <linearGradient
       id="linearGradient3834">
      <stop
         style="stop-color:#fe2a00;stop-opacity:1;"
         offset="0"
         id="stop5260" />
      <stop
         id="stop5264"
         offset="0.25"
         style="stop-color:#fe1e00;stop-opacity:0.62352941;" />
      <stop
         id="stop5262"
         offset="0.5"
         style="stop-color:#fe0000;stop-opacity:0.24705882;" />
      <stop
         style="stop-color:#ff0000;stop-opacity:0;"
         offset="1"
         id="stop3838" />
    </linearGradient>
    <linearGradient
       id="linearGradient3790">
      <stop
         id="stop3808"
         offset="0"
         style="stop-color:#009f00;stop-opacity:0.52941176;" />
      <stop
         style="stop-color:#00ff00;stop-opacity:1;"
         offset="1"
         id="stop3794" />
    </linearGradient>
    <linearGradient
       id="linearGradient3776"
       osb:paint="solid">
      <stop
         style="stop-color:#02d500;stop-opacity:1;"
         offset="0"
         id="stop3778" />
    </linearGradient>
    <linearGradient
       id="linearGradient3837"
       osb:paint="solid">
      <stop
         style="stop-color:#333333;stop-opacity:1;"
         offset="0"
         id="stop3839" />
    </linearGradient>
    <linearGradient
       inkscape:collect="always"
       xlink:href="#linearGradient3790"
       id="linearGradient3816"
       x1="93.349426"
       y1="367.43179"
       x2="110.42192"
       y2="367.43179"
       gradientUnits="userSpaceOnUse" />
    <linearGradient
       inkscape:collect="always"
       xlink:href="#linearGradient3790"
       id="linearGradient3824"
       x1="115.93352"
       y1="367.54819"
       x2="133.00601"
       y2="367.54819"
       gradientUnits="userSpaceOnUse" />
    <linearGradient
       inkscape:collect="always"
       xlink:href="#linearGradient3790"
       id="linearGradient3832"
       x1="161.45094"
       y1="367.43179"
       x2="178.52344"
       y2="367.43179"
       gradientUnits="userSpaceOnUse" />
    <linearGradient
       inkscape:collect="always"
       xlink:href="#linearGradient3790"
       id="linearGradient5254"
       x1="70.799675"
       y1="367.43179"
       x2="86.872169"
       y2="367.43179"
       gradientUnits="userSpaceOnUse" />
    <linearGradient
       inkscape:collect="always"
       xlink:href="#linearGradient5266"
       id="linearGradient5272"
       x1="70.799676"
       y1="367.43178"
       x2="86.872172"
       y2="367.43178"
       gradientUnits="userSpaceOnUse" />
    <linearGradient
       inkscape:collect="always"
       xlink:href="#linearGradient5266"
       id="linearGradient5280"
       x1="93.849426"
       y1="367.43179"
       x2="109.92192"
       y2="367.43179"
       gradientUnits="userSpaceOnUse" />
    <linearGradient
       inkscape:collect="always"
       xlink:href="#linearGradient5266"
       id="linearGradient5288"
       x1="116.43352"
       y1="367.54819"
       x2="132.50601"
       y2="367.54819"
       gradientUnits="userSpaceOnUse" />
    <linearGradient
       inkscape:collect="always"
       xlink:href="#linearGradient5266"
       id="linearGradient5296"
       x1="138.9012"
       y1="367.43179"
       x2="154.97369"
       y2="367.43179"
       gradientUnits="userSpaceOnUse" />
    <linearGradient
       inkscape:collect="always"
       xlink:href="#linearGradient5266"
       id="linearGradient5304"
       x1="161.95094"
       y1="367.43179"
       x2="178.02344"
       y2="367.43179"
       gradientUnits="userSpaceOnUse" />
  </defs>
  <sodipodi:namedview
     id="base"
     pagecolor="#ffffff"
     bordercolor="#666666"
     borderopacity="1.0"
     inkscape:pageopacity="0.0"
     inkscape:pageshadow="2"
     inkscape:zoom="2.8"
     inkscape:cx="73.730465"
     inkscape:cy="706.3525"
     inkscape:document-units="px"
     inkscape:current-layer="layer1"
     showgrid="false"
     showguides="true"
     inkscape:snap-global="true"
     inkscape:window-width="1301"
     inkscape:window-height="744"
     inkscape:window-x="65"
     inkscape:window-y="24"
     inkscape:window-maximized="1">
    <inkscape:grid
       type="xygrid"
       id="grid3017" />
  </sodipodi:namedview>
  <metadata
     id="metadata7">
    <rdf:RDF>
      <cc:Work
         rdf:about="">
        <dc:format>image/svg+xml</dc:format>
        <dc:type
           rdf:resource="http://purl.org/dc/dcmitype/StillImage" />
        <dc:title></dc:title>
      </cc:Work>
    </rdf:RDF>
  </metadata>
  <g
     inkscape:label="Layer 1"
     inkscape:groupmode="layer"
     id="layer1">
    <text
       xml:space="preserve"
       style="font-size:40px;font-style:normal;font-variant:normal;font-weight:normal;font-stretch:normal;line-height:125%;letter-spacing:0px;word-spacing:0px;fill:#000000;fill-opacity:1;stroke:none;font-family:Ubuntu Mono;-inkscape-font-specification:Ubuntu Mono"
       x="75"
       y="352.36218"
       id="text5790"
       sodipodi:linespacing="125%"
       inkscape:export-filename="/home/xenon/okerrlogo.png"
       inkscape:export-xdpi="90"
       inkscape:export-ydpi="90"><tspan
         sodipodi:role="line"
         id="tspan5792"
         x="75"
         y="352.36218"
         style="font-style:normal;font-variant:normal;font-weight:bold;font-stretch:normal;writing-mode:lr-tb;fill:#4d4d4d;font-family:Ubuntu Mono;-inkscape-font-specification:Ubuntu Mono Bold">okerr</tspan></text>
    <path
       style="stroke:url(#linearGradient5272);stroke-width:1;stroke-linejoin:round;stroke-miterlimit:4;stroke-opacity:1;stroke-dasharray:none;fill-opacity:1;fill-rule:nonzero;fill:url(#linearGradient5254)"
       d="m 74.00224,359.38559 c -1.596428,3.03201 -2.700887,6.38618 -3.202564,9.94585 l 0,6.14654 10.661954,0 c 1.715246,-4.2057 3.513573,-8.14546 5.410542,-11.79578 l 0,-4.29661 -12.869932,0 z"
       id="rect5817"
       inkscape:connector-curvature="0"
       inkscape:export-filename="/home/xenon/okerrlogo.png"
       inkscape:export-xdpi="90"
       inkscape:export-ydpi="90" />
    <path
       inkscape:connector-curvature="0"
       id="path5835"
       d="m 97.051988,359.38559 c -1.59643,3.03201 -2.700887,6.38618 -3.202565,9.94585 l 0,6.14654 10.661947,0 c 1.71526,-4.2057 3.51359,-8.14546 5.41055,-11.79578 l 0,-4.29661 -12.869932,0 z"
       style="fill:url(#linearGradient3816);stroke:url(#linearGradient5280);stroke-width:1;stroke-linejoin:round;stroke-miterlimit:4;stroke-opacity:1;stroke-dasharray:none;fill-opacity:1"
       inkscape:export-filename="/home/xenon/okerrlogo.png"
       inkscape:export-xdpi="90"
       inkscape:export-ydpi="90" />
    <path
       style="fill:url(#linearGradient3824);stroke:url(#linearGradient5288);stroke-width:1;stroke-linejoin:round;stroke-miterlimit:4;stroke-opacity:1;stroke-dasharray:none;fill-opacity:1"
       d="m 119.63608,359.502 c -1.59643,3.03201 -2.70088,6.38618 -3.20256,9.94585 l 0,6.14654 10.66195,0 c 1.71525,-4.20569 3.51358,-8.14545 5.41054,-11.79579 l 0,-4.2966 -12.86993,0 z"
       id="path5837"
       inkscape:connector-curvature="0"
       inkscape:export-filename="/home/xenon/okerrlogo.png"
       inkscape:export-xdpi="90"
       inkscape:export-ydpi="90" />
    <path
       style="fill:#ff0000;stroke:url(#linearGradient5296);stroke-width:1;stroke-linejoin:round;stroke-miterlimit:4;stroke-opacity:1;stroke-dasharray:none;fill-opacity:0.91338580999999996"
       d="m 142.10377,359.38559 c -1.59644,3.03201 -2.70089,6.38618 -3.20257,9.94585 l 0,6.14654 10.66196,0 c 1.71524,-4.2057 3.51357,-8.14546 5.41053,-11.79578 l 0,-4.29661 -12.86992,0 z"
       id="path5839"
       inkscape:connector-curvature="0"
       inkscape:export-filename="/home/xenon/okerrlogo.png"
       inkscape:export-xdpi="90"
       inkscape:export-ydpi="90" />
    <path
       inkscape:connector-curvature="0"
       id="path5841"
       d="m 165.15351,359.38559 c -1.59643,3.03201 -2.70088,6.38618 -3.20256,9.94585 l 0,6.14654 10.66195,0 c 1.71525,-4.2057 3.51357,-8.14546 5.41054,-11.79578 l 0,-4.29661 -12.86993,0 z"
       style="fill:url(#linearGradient3832);stroke:url(#linearGradient5304);stroke-width:1;stroke-linejoin:round;stroke-miterlimit:4;stroke-opacity:1;stroke-dasharray:none;fill-opacity:1"
       inkscape:export-filename="/home/xenon/okerrlogo.png"
       inkscape:export-xdpi="90"
       inkscape:export-ydpi="90" />
  </g>
</svg>
